\relax 
\catcode `"\active 
\providecommand \oddpage@label [2]{}
\babel@aux{danish}{}
\@writefile{lof}{\contentsline {figure}{\numberline {1}{\ignorespaces \relax }}{1}\protected@file@percent }
\providecommand*\caption@xref[2]{\@setref\relax\@undefined{#1}}
\newlabel{fig:Ng1}{{2a}{1}}
\newlabel{sub@fig:Ng1}{{a}{1}}
\newlabel{fig:Ng2}{{2b}{1}}
\newlabel{sub@fig:Ng2}{{b}{1}}
