\relax 
\catcode `"\active 
\providecommand \oddpage@label [2]{}
\babel@aux{danish}{}
\@writefile{lof}{\contentsline {figure}{\numberline {1}{\ignorespaces 0018.01.01.[3]\relax }}{1}\protected@file@percent }
\@writefile{lof}{\contentsline {figure}{\numberline {3}{\ignorespaces 0052.01.03.[3]\relax }}{2}\protected@file@percent }
\@writefile{lof}{\contentsline {figure}{\numberline {5}{\ignorespaces 0082.01.04.[3]\relax }}{3}\protected@file@percent }
\@writefile{lof}{\contentsline {figure}{\numberline {7}{\ignorespaces 0087.03.04.[2]\relax }}{4}\protected@file@percent }
\@writefile{lof}{\contentsline {figure}{\numberline {9}{\ignorespaces 0095.01.04.[3]\relax }}{5}\protected@file@percent }
\@writefile{lof}{\contentsline {figure}{\numberline {11}{\ignorespaces 0114.01.04.[3]\relax }}{6}\protected@file@percent }
\@writefile{lof}{\contentsline {figure}{\numberline {13}{\ignorespaces 0214.01.04.[3]\relax }}{7}\protected@file@percent }
\@writefile{lof}{\contentsline {figure}{\numberline {15}{\ignorespaces 0223.01.07.[3]\relax }}{8}\protected@file@percent }
\@writefile{lof}{\contentsline {figure}{\numberline {17}{\ignorespaces 0234.01.01.[3]\relax }}{9}\protected@file@percent }
\@writefile{lof}{\contentsline {figure}{\numberline {19}{\ignorespaces 0234.01.04.[3]\relax }}{10}\protected@file@percent }
\@writefile{lof}{\contentsline {figure}{\numberline {21}{\ignorespaces 0302.01.04.[3]\relax }}{11}\protected@file@percent }
\@writefile{lof}{\contentsline {figure}{\numberline {23}{\ignorespaces 0304.01.07.[3]\relax }}{12}\protected@file@percent }
\@writefile{lof}{\contentsline {figure}{\numberline {25}{\ignorespaces 0463.01.03.[3]\relax }}{13}\protected@file@percent }
\@writefile{lof}{\contentsline {figure}{\numberline {27}{\ignorespaces 0800.01.01.[3]\relax }}{14}\protected@file@percent }
